## Interface: 20501
## Title: LuaDKP-Data
## SavedVariables: LuaDKP_Export
## SavedVariables: masterDKP
## SavedVariables: dkpLog

# Init:
Solstice/Init.lua

# Settings:
Solstice/Settings/Accounts.lua
Solstice/Settings/Black Temple.lua
Solstice/Settings/Bosses.lua
Solstice/Settings/Corrections.lua
Solstice/Settings/Gruul.lua
Solstice/Settings/Hyjal.lua
Solstice/Settings/Inactive.lua
Solstice/Settings/Magtheridon.lua
Solstice/Settings/Roster.lua
Solstice/Settings/Settings.lua
Solstice/Settings/SSC.lua
Solstice/Settings/Sunwell.lua
Solstice/Settings/TK.lua

# Raids:
Solstice/Raids/2022-10-12_Naxx2.lua
Solstice/Raids/2022-10-18_Naxx.lua

# Main:
Main.lua
