## Interface: 11307
## Title: Solstice-LuaDKP-Core
## SavedVariables: LuaDKP_Settings
## SavedVariables: masterDKP
## SavedVariables: dkpLog

Init.lua
Tools.lua
Misc.lua
Calc.lua
Store.lua
Group.lua
Main.lua
ViewController.lua
ViewSync.lua
ViewList.lua
ViewRoster.lua
ViewBid.lua
